tree1: 0 0 256 256
tree2: 256 0 256 256
tree3: 512 0 256 256
tree4: 768 0 256 256
tree5: 1024 0 256 256
tree6: 0 256 192 192
tree7: 192 256 192 192
tree8: 384 256 192 192
tree9: 576 256 192 320
tree10: 768 256 256 256
tree11: 0 448 256 256
tree12: 256 448 320 256
tree13: 1152 256 192 192
bush1: 1024 256 128 128
bush2: 1024 384 128 128